<?xml version="1.0" encoding="UTF-8" standalone="no"?>
<svg
   version="1.1"
   viewBox="0 0 900.52142 277.87424"
   fill="none"
   stroke="none"
   stroke-linecap="square"
   stroke-miterlimit="10"
   id="svg145"
   sodipodi:docname="Apresentação sem título.svg"
   width="900.52142"
   height="277.87424"
   inkscape:version="1.2 (dc2aedaf03, 2022-05-15)"
   xmlns:inkscape="http://www.inkscape.org/namespaces/inkscape"
   xmlns:sodipodi="http://sodipodi.sourceforge.net/DTD/sodipodi-0.dtd"
   xmlns="http://www.w3.org/2000/svg"
   xmlns:svg="http://www.w3.org/2000/svg">
  <defs
     id="defs149" />
  <sodipodi:namedview
     id="namedview147"
     pagecolor="#ffffff"
     bordercolor="#666666"
     borderopacity="1.0"
     inkscape:showpageshadow="2"
     inkscape:pageopacity="0.0"
     inkscape:pagecheckerboard="0"
     inkscape:deskcolor="#d1d1d1"
     showgrid="false"
     inkscape:zoom="1.3600877"
     inkscape:cx="458.79394"
     inkscape:cy="236.38181"
     inkscape:window-width="1920"
     inkscape:window-height="1002"
     inkscape:window-x="0"
     inkscape:window-y="0"
     inkscape:window-maximized="1"
     inkscape:current-layer="svg145" />
  <path
     fill="#ffffff"
     d="M 0,3.387449 H 900.5214 V 277.87423 H 0 Z"
     fill-rule="evenodd"
     id="path5"
     style="stroke-width:0.690519" />
  <path
     fill="#d9d9d9"
     d="m 6.3881347,244.88186 v 0 c 0,-9.3533 7.5823503,-16.93567 16.9356523,-16.93567 h 47.640507 v 0 c 4.491615,0 8.799263,1.78429 11.975319,4.96035 3.176048,3.17602 4.960335,7.48367 4.960335,11.97531 v 11.29404 c 0,9.3533 -7.582352,16.93563 -16.935654,16.93563 H 23.323787 c -9.353302,0 -16.9356523,-7.58233 -16.9356523,-16.93563 z"
     fill-rule="evenodd"
     id="path7" />
  <path
     fill="#000000"
     d="m 28.509276,250.66638 q 0,-2.53125 0.515625,-4.07813 0.53125,-1.5625 1.5625,-2.39062 1.03125,-0.84375 2.59375,-0.84375 1.15625,0 2.015625,0.46875 0.875,0.45312 1.4375,1.32812 0.5625,0.875 0.890625,2.14063 0.328125,1.25 0.328125,3.375 0,2.51562 -0.53125,4.0625 -0.515625,1.54687 -1.546875,2.40625 -1.015625,0.84375 -2.59375,0.84375 -2.078125,0 -3.25,-1.48438 -1.421875,-1.79687 -1.421875,-5.82812 z m 1.8125,0 q 0,3.53125 0.8125,4.70312 0.828125,1.15625 2.046875,1.15625 1.203125,0 2.03125,-1.17187 0.828125,-1.17188 0.828125,-4.6875 0,-3.53125 -0.828125,-4.6875 -0.828125,-1.17188 -2.046875,-1.17188 -1.21875,0 -1.9375,1.03125 -0.90625,1.29688 -0.90625,4.82813 z m 18.544922,5.375 v 1.6875 h -9.453125 q -0.01563,-0.64063 0.203125,-1.21875 0.359375,-0.96875 1.15625,-1.90625 0.796875,-0.9375 2.296875,-2.17188 2.34375,-1.90625 3.15625,-3.01562 0.828125,-1.125 0.828125,-2.125 0,-1.04688 -0.75,-1.76563 -0.75,-0.71875 -1.953125,-0.71875 -1.265625,0 -2.03125,0.76563 -0.765625,0.76562 -0.765625,2.10937 l -1.8125,-0.1875 q 0.1875,-2.01562 1.390625,-3.07812 1.21875,-1.0625 3.265625,-1.0625 2.046875,0 3.25,1.14062 1.203125,1.14063 1.203125,2.82813 0,0.85937 -0.359375,1.70312 -0.34375,0.82813 -1.15625,1.75 -0.8125,0.90625 -2.703125,2.51563 -1.59375,1.32812 -2.046875,1.79687 -0.4375,0.46875 -0.734375,0.95313 z m 2.794922,1.6875 v -9 h -1.546875 v -1.375 h 1.546875 v -1.09375 q 0,-1.04688 0.1875,-1.5625 0.25,-0.6875 0.890625,-1.10938 0.640625,-0.42187 1.796875,-0.42187 0.75,0 1.640625,0.17187 l -0.265625,1.53125 q -0.546875,-0.0937 -1.03125,-0.0937 -0.796875,0 -1.140625,0.34375 -0.328125,0.34375 -0.328125,1.28125 v 0.95312 h 2.03125 v 1.375 h -2.03125 v 9 z m 12.244141,-3.34375 1.8125,0.23437 q -0.421875,1.57813 -1.59375,2.46875 -1.15625,0.875 -2.96875,0.875 -2.265625,0 -3.609375,-1.39062 -1.328125,-1.40625 -1.328125,-3.9375 0,-2.625 1.34375,-4.0625 1.34375,-1.45313 3.5,-1.45313 2.078125,0 3.390625,1.42188 1.328125,1.40625 1.328125,3.98437 0,0.15625 -0.01563,0.46875 h -7.734375 q 0.09375,1.70313 0.96875,2.60938 0.875,0.90625 2.171875,0.90625 0.96875,0 1.640625,-0.5 0.6875,-0.51563 1.09375,-1.625 z m -5.78125,-2.84375 h 5.796875 q -0.109375,-1.29688 -0.65625,-1.95313 -0.84375,-1.01562 -2.1875,-1.01562 -1.203125,0 -2.03125,0.8125 -0.828125,0.79687 -0.921875,2.15625 z"
     fill-rule="nonzero"
     id="path9" />
  <path
     fill="#d9d9d9"
     d="m 115.5797,244.88186 v 0 c 0,-9.3533 7.58235,-16.93567 16.93565,-16.93567 h 47.64051 v 0 c 4.49162,0 8.79927,1.78429 11.97531,4.96035 3.17605,3.17602 4.96034,7.48367 4.96034,11.97531 v 11.29404 c 0,9.3533 -7.58235,16.93563 -16.93565,16.93563 h -47.64051 c -9.3533,0 -16.93565,-7.58233 -16.93565,-16.93563 z"
     fill-rule="evenodd"
     id="path11" />
  <path
     fill="#000000"
     d="m 137.62076,249.96325 q -1.09375,-0.40625 -1.625,-1.14062 -0.51563,-0.75 -0.51563,-1.78125 0,-1.5625 1.125,-2.625 1.125,-1.0625 2.98438,-1.0625 1.875,0 3.01562,1.09375 1.14063,1.07812 1.14063,2.64062 0,1 -0.53125,1.73438 -0.51563,0.73437 -1.57813,1.14062 1.32813,0.4375 2.01563,1.39063 0.6875,0.95312 0.6875,2.28125 0,1.84375 -1.3125,3.09375 -1.29688,1.25 -3.40625,1.25 -2.125,0 -3.42188,-1.25 -1.29687,-1.26563 -1.29687,-3.14063 0,-1.39062 0.70312,-2.32812 0.71875,-0.95313 2.01563,-1.29688 z m -0.34375,-2.98437 q 0,1.01562 0.65625,1.67187 0.65625,0.64063 1.6875,0.64063 1.01562,0 1.67187,-0.64063 0.65625,-0.64062 0.65625,-1.5625 0,-0.96875 -0.67187,-1.625 -0.67188,-0.67187 -1.67188,-0.67187 -1,0 -1.67187,0.65625 -0.65625,0.64062 -0.65625,1.53125 z m -0.5625,6.625 q 0,0.75 0.34375,1.45312 0.35937,0.70313 1.0625,1.09375 0.70312,0.375 1.51562,0.375 1.26563,0 2.07813,-0.8125 0.82812,-0.8125 0.82812,-2.0625 0,-1.26562 -0.84375,-2.09375 -0.84375,-0.82812 -2.125,-0.82812 -1.23437,0 -2.04687,0.82812 -0.8125,0.8125 -0.8125,2.04688 z m 9.45117,-8.3125 v -1.6875 h 9.26563 v 1.35937 q -1.375,1.45313 -2.71875,3.875 -1.34375,2.40625 -2.0625,4.95313 -0.53125,1.79687 -0.6875,3.9375 h -1.79688 q 0.0312,-1.6875 0.65625,-4.07813 0.64063,-2.39062 1.82813,-4.60937 1.1875,-2.23438 2.51562,-3.75 z m 20.23242,10.75 v 1.6875 h -9.45312 q -0.0156,-0.64063 0.20312,-1.21875 0.35938,-0.96875 1.15625,-1.90625 0.79688,-0.9375 2.29688,-2.17188 2.34375,-1.90625 3.15625,-3.01562 0.82812,-1.125 0.82812,-2.125 0,-1.04688 -0.75,-1.76563 -0.75,-0.71875 -1.95312,-0.71875 -1.26563,0 -2.03125,0.76563 -0.76563,0.76562 -0.76563,2.10937 l -1.8125,-0.1875 q 0.1875,-2.01562 1.39063,-3.07812 1.21875,-1.0625 3.26562,-1.0625 2.04688,0 3.25,1.14062 1.20313,1.14063 1.20313,2.82813 0,0.85937 -0.35938,1.70312 -0.34375,0.82813 -1.15625,1.75 -0.8125,0.90625 -2.70312,2.51563 -1.59375,1.32812 -2.04688,1.79687 -0.4375,0.46875 -0.73437,0.95313 z m 9.1543,0.40625 q -0.98437,0.82812 -1.89062,1.17187 -0.90625,0.34375 -1.9375,0.34375 -1.70313,0 -2.625,-0.82812 -0.92188,-0.84375 -0.92188,-2.14063 0,-0.76562 0.34375,-1.39062 0.35938,-0.625 0.92188,-1 0.5625,-0.39063 1.26562,-0.59375 0.51563,-0.125 1.5625,-0.26563 2.125,-0.25 3.125,-0.59375 0.0156,-0.35937 0.0156,-0.46875 0,-1.0625 -0.5,-1.51562 -0.67188,-0.59375 -2,-0.59375 -1.25,0 -1.84375,0.4375 -0.57813,0.4375 -0.85938,1.54687 l -1.71875,-0.23437 q 0.23438,-1.10938 0.76563,-1.78125 0.53125,-0.6875 1.54687,-1.04688 1.01563,-0.375 2.35938,-0.375 1.32812,0 2.15625,0.3125 0.82812,0.3125 1.21875,0.79688 0.39062,0.46875 0.54687,1.1875 0.0937,0.45312 0.0937,1.625 v 2.34375 q 0,2.45312 0.10938,3.10937 0.10937,0.64063 0.45312,1.23438 h -1.84375 q -0.26562,-0.54688 -0.34375,-1.28125 z m -0.15625,-3.92188 q -0.95312,0.39063 -2.875,0.65625 -1.07812,0.15625 -1.53125,0.35938 -0.4375,0.1875 -0.6875,0.5625 -0.25,0.375 -0.25,0.84375 0,0.70312 0.53125,1.17187 0.53125,0.46875 1.5625,0.46875 1.01563,0 1.79688,-0.4375 0.79687,-0.45312 1.17187,-1.21875 0.28125,-0.60937 0.28125,-1.76562 z"
     fill-rule="nonzero"
     id="path13" />
  <path
     fill="#000000"
     fill-opacity="0"
     d="M 115.5797,250.52886 H 87.894667"
     fill-rule="evenodd"
     id="path15" />
  <path
     stroke="#000000"
     stroke-width="1"
     stroke-linejoin="round"
     stroke-linecap="butt"
     d="M 115.57969,250.52886 H 93.894653"
     fill-rule="evenodd"
     id="path17" />
  <path
     fill="#000000"
     stroke="#000000"
     stroke-width="1"
     stroke-linecap="butt"
     d="m 93.894663,248.87713 -4.538101,1.65173 4.538101,1.65174 z"
     fill-rule="evenodd"
     id="path19" />
  <path
     fill="#f54d27"
     d="m 315.73723,166.93303 h 113.32284 v 36.6929 H 315.73723 Z"
     fill-rule="evenodd"
     id="path21" />
  <path
     fill="#ffffff"
     d="m 352.03637,192.47946 v -10.375 h 1.57813 v 1.45313 q 0.48437,-0.75 1.29687,-1.21875 0.8125,-0.46875 1.84375,-0.46875 1.15625,0 1.89063,0.48437 0.73437,0.46875 1.04687,1.32813 1.23438,-1.8125 3.20313,-1.8125 1.54687,0 2.375,0.85937 0.82812,0.85938 0.82812,2.625 v 7.125 h -1.75 v -6.53125 q 0,-1.0625 -0.17187,-1.51562 -0.17188,-0.46875 -0.625,-0.75 -0.4375,-0.28125 -1.04688,-0.28125 -1.09375,0 -1.82812,0.73437 -0.71875,0.71875 -0.71875,2.3125 v 6.03125 h -1.75 v -6.73437 q 0,-1.17188 -0.4375,-1.75 -0.42188,-0.59375 -1.40625,-0.59375 -0.73438,0 -1.375,0.39062 -0.625,0.39063 -0.90625,1.14063 -0.28125,0.75 -0.28125,2.17187 v 5.375 z m 23.44141,-1.28125 q -0.98438,0.82813 -1.89063,1.17188 -0.90625,0.34375 -1.9375,0.34375 -1.70312,0 -2.625,-0.82813 -0.92187,-0.84375 -0.92187,-2.14062 0,-0.76563 0.34375,-1.39063 0.35937,-0.625 0.92187,-1 0.5625,-0.39062 1.26563,-0.59375 0.51562,-0.125 1.5625,-0.26562 2.125,-0.25 3.125,-0.59375 0.0156,-0.35938 0.0156,-0.46875 0,-1.0625 -0.5,-1.51563 -0.67187,-0.59375 -2,-0.59375 -1.25,0 -1.84375,0.4375 -0.57812,0.4375 -0.85937,1.54688 l -1.71875,-0.23438 q 0.23437,-1.10937 0.76562,-1.78125 0.53125,-0.6875 1.54688,-1.04687 1.01562,-0.375 2.35937,-0.375 1.32813,0 2.15625,0.3125 0.82813,0.3125 1.21875,0.79687 0.39063,0.46875 0.54688,1.1875 0.0937,0.45313 0.0937,1.625 v 2.34375 q 0,2.45313 0.10937,3.10938 0.10938,0.64062 0.45313,1.23437 h -1.84375 q -0.26563,-0.54687 -0.34375,-1.28125 z m -0.15625,-3.92187 q -0.95313,0.39062 -2.875,0.65625 -1.07813,0.15625 -1.53125,0.35937 -0.4375,0.1875 -0.6875,0.5625 -0.25,0.375 -0.25,0.84375 0,0.70313 0.53125,1.17188 0.53125,0.46875 1.5625,0.46875 1.01562,0 1.79687,-0.4375 0.79688,-0.45313 1.17188,-1.21875 0.28125,-0.60938 0.28125,-1.76563 z m 4.51367,-7.09375 v -2.01563 h 1.76562 v 2.01563 z m 0,12.29687 v -10.375 h 1.76562 v 10.375 z m 4.42773,0 v -10.375 h 1.59375 v 1.48438 q 1.14063,-1.71875 3.29688,-1.71875 0.9375,0 1.71875,0.34375 0.79687,0.32812 1.1875,0.875 0.39062,0.54687 0.54687,1.29687 0.0937,0.5 0.0937,1.71875 v 6.375 h -1.76562 v -6.3125 q 0,-1.07812 -0.20313,-1.60937 -0.20312,-0.53125 -0.73437,-0.84375 -0.51563,-0.3125 -1.21875,-0.3125 -1.125,0 -1.9375,0.71875 -0.8125,0.70312 -0.8125,2.6875 v 5.67187 z"
     fill-rule="nonzero"
     id="path23" />
  <path
     fill="#000000"
     fill-opacity="0"
     d="m 372.39867,203.62592 v 24.31496"
     fill-rule="evenodd"
     id="path25" />
  <path
     stroke="#000000"
     stroke-width="1"
     stroke-linejoin="round"
     stroke-linecap="butt"
     d="m 372.39867,203.62592 v 18.31496"
     fill-rule="evenodd"
     id="path27" />
  <path
     fill="#000000"
     stroke="#000000"
     stroke-width="1"
     stroke-linecap="butt"
     d="m 370.74694,221.94088 1.65173,4.53813 1.65174,-4.53812 z"
     fill-rule="evenodd"
     id="path29" />
  <path
     fill="#d9d9d9"
     d="m 223.61162,244.88186 v 0 c 0,-9.3533 7.58235,-16.93567 16.93565,-16.93567 h 47.64049 v 0 c 4.49164,0 8.79929,1.78429 11.97531,4.96035 3.17606,3.17602 4.96036,7.48367 4.96036,11.97531 v 11.29404 c 0,9.3533 -7.58237,16.93563 -16.93567,16.93563 h -47.64049 c -9.3533,0 -16.93565,-7.58233 -16.93565,-16.93563 z"
     fill-rule="evenodd"
     id="path31" />
  <path
     fill="#000000"
     d="m 243.77671,254.41638 1.6875,-0.15625 q 0.21875,1.1875 0.8125,1.73437 0.60936,0.53125 1.56248,0.53125 0.8125,0 1.42188,-0.35937 0.60937,-0.375 1,-1 0.39062,-0.625 0.65625,-1.67188 0.26562,-1.0625 0.26562,-2.15625 0,-0.10937 -0.0156,-0.34375 -0.53125,0.82813 -1.4375,1.35938 -0.90625,0.51562 -1.98438,0.51562 -1.76561,0 -2.99998,-1.28125 -1.23438,-1.29687 -1.23438,-3.40625 0,-2.17187 1.28125,-3.5 1.29688,-1.32812 3.21874,-1.32812 1.40625,0 2.5625,0.75 1.15625,0.75 1.75,2.14062 0.60937,1.39063 0.60937,4.03125 0,2.75 -0.60937,4.375 -0.59375,1.625 -1.76563,2.48438 -1.17187,0.84375 -2.75,0.84375 -1.68748,0 -2.74998,-0.9375 -1.0625,-0.9375 -1.28125,-2.625 z m 7.20311,-6.3125 q 0,-1.51563 -0.8125,-2.40625 -0.79688,-0.89063 -1.9375,-0.89063 -1.17188,0 -2.04686,0.96875 -0.85938,0.95313 -0.85938,2.46875 0,1.375 0.8125,2.23438 0.82811,0.84375 2.04686,0.84375 1.21875,0 2,-0.84375 0.79688,-0.85938 0.79688,-2.375 z m 6.35742,1.85937 q -1.09375,-0.40625 -1.625,-1.14062 -0.51562,-0.75 -0.51562,-1.78125 0,-1.5625 1.125,-2.625 1.125,-1.0625 2.98437,-1.0625 1.875,0 3.01563,1.09375 1.14062,1.07812 1.14062,2.64062 0,1 -0.53125,1.73438 -0.51562,0.73437 -1.57812,1.14062 1.32812,0.4375 2.01562,1.39063 0.6875,0.95312 0.6875,2.28125 0,1.84375 -1.3125,3.09375 -1.29687,1.25 -3.40625,1.25 -2.125,0 -3.42187,-1.25 -1.29688,-1.26563 -1.29688,-3.14063 0,-1.39062 0.70313,-2.32812 0.71875,-0.95313 2.01562,-1.29688 z m -0.34375,-2.98437 q 0,1.01562 0.65625,1.67187 0.65625,0.64063 1.6875,0.64063 1.01563,0 1.67188,-0.64063 0.65625,-0.64062 0.65625,-1.5625 0,-0.96875 -0.67188,-1.625 -0.67187,-0.67187 -1.67187,-0.67187 -1,0 -1.67188,0.65625 -0.65625,0.64062 -0.65625,1.53125 z m -0.5625,6.625 q 0,0.75 0.34375,1.45312 0.35938,0.70313 1.0625,1.09375 0.70313,0.375 1.51563,0.375 1.26562,0 2.07812,-0.8125 0.82813,-0.8125 0.82813,-2.0625 0,-1.26562 -0.84375,-2.09375 -0.84375,-0.82812 -2.125,-0.82812 -1.23438,0 -2.04688,0.82812 -0.8125,0.8125 -0.8125,2.04688 z m 18.56055,2.4375 v 1.6875 h -9.45313 q -0.0156,-0.64063 0.20313,-1.21875 0.35937,-0.96875 1.15625,-1.90625 0.79687,-0.9375 2.29687,-2.17188 2.34375,-1.90625 3.15625,-3.01562 0.82813,-1.125 0.82813,-2.125 0,-1.04688 -0.75,-1.76563 -0.75,-0.71875 -1.95313,-0.71875 -1.26562,0 -2.03125,0.76563 -0.76562,0.76562 -0.76562,2.10937 l -1.8125,-0.1875 q 0.1875,-2.01562 1.39062,-3.07812 1.21875,-1.0625 3.26563,-1.0625 2.04687,0 3.25,1.14062 1.20312,1.14063 1.20312,2.82813 0,0.85937 -0.35937,1.70312 -0.34375,0.82813 -1.15625,1.75 -0.8125,0.90625 -2.70313,2.51563 -1.59375,1.32812 -2.04687,1.79687 -0.4375,0.46875 -0.73438,0.95313 z m 9.1543,-2.10938 1.71875,0.21875 q -0.28125,1.79688 -1.45313,2.8125 -1.15625,1 -2.85937,1 -2.125,0 -3.42188,-1.39062 -1.29687,-1.39063 -1.29687,-3.98438 0,-1.6875 0.54687,-2.9375 0.5625,-1.26562 1.70313,-1.89062 1.14062,-0.64063 2.48437,-0.64063 1.6875,0 2.75,0.85938 1.07813,0.85937 1.39063,2.42187 l -1.71875,0.26563 q -0.23438,-1.04688 -0.85938,-1.5625 -0.625,-0.53125 -1.5,-0.53125 -1.32812,0 -2.15625,0.95312 -0.82812,0.95313 -0.82812,3 0,2.09375 0.79687,3.04688 0.79688,0.9375 2.09375,0.9375 1.03125,0 1.71875,-0.625 0.70313,-0.64063 0.89063,-1.95313 z"
     fill-rule="nonzero"
     id="path33" />
  <path
     fill="#d9d9d9"
     d="m 331.64269,244.88186 v 0 c 0,-9.3533 7.58237,-16.93567 16.93567,-16.93567 h 47.6405 v 0 c 4.49161,0 8.79926,1.78429 11.97531,4.96035 3.17606,3.17602 4.96033,7.48367 4.96033,11.97531 v 11.29404 c 0,9.3533 -7.58234,16.93563 -16.93564,16.93563 h -47.6405 c -9.3533,0 -16.93567,-7.58233 -16.93567,-16.93563 z"
     fill-rule="evenodd"
     id="path35" />
  <path
     fill="#000000"
     d="m 360.10564,246.91638 -1.75,0.14062 q -0.23438,-1.03125 -0.65625,-1.5 -0.71875,-0.76562 -1.76563,-0.76562 -0.84375,0 -1.46875,0.46875 -0.82812,0.60937 -1.3125,1.78125 -0.48437,1.15625 -0.5,3.29687 0.64063,-0.95312 1.54688,-1.42187 0.92187,-0.46875 1.9375,-0.46875 1.75,0 2.98437,1.29687 1.23438,1.28125 1.23438,3.32813 0,1.35937 -0.57813,2.51562 -0.57812,1.15625 -1.59375,1.78125 -1.01562,0.60938 -2.3125,0.60938 -2.1875,0 -3.57812,-1.60938 -1.39063,-1.625 -1.39063,-5.34375 0,-4.14062 1.53125,-6.03125 1.34375,-1.64062 3.60938,-1.64062 1.6875,0 2.76562,0.95312 1.07813,0.9375 1.29688,2.60938 z m -7.17188,6.17187 q 0,0.90625 0.375,1.73438 0.39063,0.82812 1.07813,1.26562 0.70312,0.4375 1.45312,0.4375 1.125,0 1.92188,-0.89062 0.79687,-0.90625 0.79687,-2.45313 0,-1.48437 -0.79687,-2.32812 -0.78125,-0.85938 -1.98438,-0.85938 -1.1875,0 -2.01562,0.85938 -0.82813,0.84375 -0.82813,2.23437 z m 18.4043,2.95313 v 1.6875 h -9.45312 q -0.0156,-0.64063 0.20312,-1.21875 0.35938,-0.96875 1.15625,-1.90625 0.79688,-0.9375 2.29688,-2.17188 2.34375,-1.90625 3.15625,-3.01562 0.82812,-1.125 0.82812,-2.125 0,-1.04688 -0.75,-1.76563 -0.75,-0.71875 -1.95312,-0.71875 -1.26563,0 -2.03125,0.76563 -0.76563,0.76562 -0.76563,2.10937 l -1.8125,-0.1875 q 0.1875,-2.01562 1.39063,-3.07812 1.21875,-1.0625 3.26562,-1.0625 2.04688,0 3.25,1.14062 1.20313,1.14063 1.20313,2.82813 0,0.85937 -0.35938,1.70312 -0.34375,0.82813 -1.15625,1.75 -0.8125,0.90625 -2.70312,2.51563 -1.59375,1.32812 -2.04688,1.79687 -0.4375,0.46875 -0.73437,0.95313 z m 9.1543,0.40625 q -0.98438,0.82812 -1.89063,1.17187 -0.90625,0.34375 -1.9375,0.34375 -1.70312,0 -2.625,-0.82812 -0.92187,-0.84375 -0.92187,-2.14063 0,-0.76562 0.34375,-1.39062 0.35937,-0.625 0.92187,-1 0.5625,-0.39063 1.26563,-0.59375 0.51562,-0.125 1.5625,-0.26563 2.125,-0.25 3.125,-0.59375 0.0156,-0.35937 0.0156,-0.46875 0,-1.0625 -0.5,-1.51562 -0.67187,-0.59375 -2,-0.59375 -1.25,0 -1.84375,0.4375 -0.57812,0.4375 -0.85937,1.54687 l -1.71875,-0.23437 q 0.23437,-1.10938 0.76562,-1.78125 0.53125,-0.6875 1.54688,-1.04688 1.01562,-0.375 2.35937,-0.375 1.32813,0 2.15625,0.3125 0.82813,0.3125 1.21875,0.79688 0.39063,0.46875 0.54688,1.1875 0.0937,0.45312 0.0937,1.625 v 2.34375 q 0,2.45312 0.10937,3.10937 0.10938,0.64063 0.45313,1.23438 h -1.84375 q -0.26563,-0.54688 -0.34375,-1.28125 z m -0.15625,-3.92188 q -0.95313,0.39063 -2.875,0.65625 -1.07813,0.15625 -1.53125,0.35938 -0.4375,0.1875 -0.6875,0.5625 -0.25,0.375 -0.25,0.84375 0,0.70312 0.53125,1.17187 0.53125,0.46875 1.5625,0.46875 1.01562,0 1.79687,-0.4375 0.79688,-0.45312 1.17188,-1.21875 0.28125,-0.60937 0.28125,-1.76562 z m 11.60742,1.85938 1.8125,0.23437 q -0.42187,1.57813 -1.59375,2.46875 -1.15625,0.875 -2.96875,0.875 -2.26562,0 -3.60937,-1.39062 -1.32813,-1.40625 -1.32813,-3.9375 0,-2.625 1.34375,-4.0625 1.34375,-1.45313 3.5,-1.45313 2.07813,0 3.39063,1.42188 1.32812,1.40625 1.32812,3.98437 0,0.15625 -0.0156,0.46875 h -7.73438 q 0.0937,1.70313 0.96875,2.60938 0.875,0.90625 2.17188,0.90625 0.96875,0 1.64062,-0.5 0.6875,-0.51563 1.09375,-1.625 z m -5.78125,-2.84375 h 5.79688 q -0.10938,-1.29688 -0.65625,-1.95313 -0.84375,-1.01562 -2.1875,-1.01562 -1.20313,0 -2.03125,0.8125 -0.82813,0.79687 -0.92188,2.15625 z"
     fill-rule="nonzero"
     id="path37" />
  <path
     fill="#000000"
     fill-opacity="0"
     d="M 223.61162,250.52886 H 197.09194"
     fill-rule="evenodd"
     id="path39" />
  <path
     stroke="#000000"
     stroke-width="1"
     stroke-linejoin="round"
     stroke-linecap="butt"
     d="M 223.61162,250.52886 H 203.09194"
     fill-rule="evenodd"
     id="path41" />
  <path
     fill="#000000"
     stroke="#000000"
     stroke-width="1"
     stroke-linecap="butt"
     d="m 203.09194,248.87713 -4.5381,1.65173 4.5381,1.65174 z"
     fill-rule="evenodd"
     id="path43" />
  <path
     fill="#000000"
     fill-opacity="0"
     d="M 331.64269,250.52886 H 305.12301"
     fill-rule="evenodd"
     id="path45" />
  <path
     stroke="#000000"
     stroke-width="1"
     stroke-linejoin="round"
     stroke-linecap="butt"
     d="M 331.64271,250.52886 H 311.12303"
     fill-rule="evenodd"
     id="path47" />
  <path
     fill="#000000"
     stroke="#000000"
     stroke-width="1"
     stroke-linecap="butt"
     d="m 311.12304,248.87713 -4.53812,1.65173 4.53812,1.65174 z"
     fill-rule="evenodd"
     id="path49" />
  <path
     fill="#000000"
     fill-opacity="0"
     d="M 376.60079,0 H 564.03386 V 48.661415 H 376.60079 Z"
     fill-rule="evenodd"
     id="path51" />
  <path
     fill="#000000"
     d="M 372.57236,39.436925 V 37.32755 q -1.59375,-0.1875 -2.57813,-0.703125 -0.98437,-0.515625 -1.71875,-1.640625 -0.71875,-1.140625 -0.82812,-2.78125 l 2.125,-0.40625 q 0.23437,1.703125 0.85937,2.5 0.89063,1.125 2.14063,1.25 v -6.71875 q -1.3125,-0.234375 -2.67188,-1 -1,-0.5625 -1.54687,-1.5625 -0.54688,-1 -0.54688,-2.265625 0,-2.25 1.59375,-3.640625 1.0625,-0.9375 3.17188,-1.140625 V 18.20255 h 1.23437 v 1.015625 q 1.84375,0.171875 2.92188,1.078125 1.375,1.140625 1.65625,3.140625 l -2.17188,0.328125 q -0.1875,-1.234375 -0.78125,-1.890625 -0.59375,-0.671875 -1.625,-0.875 v 6.078125 q 1.59375,0.390625 2.10938,0.625 0.98437,0.421875 1.60937,1.046875 0.625,0.625 0.95313,1.484375 0.32812,0.84375 0.32812,1.84375 0,2.1875 -1.39062,3.65625 -1.39063,1.46875 -3.60938,1.578125 v 2.125 z m 0,-18.46875 q -1.23438,0.1875 -1.95313,0.984375 -0.70312,0.796875 -0.70312,1.890625 0,1.078125 0.59375,1.8125 0.60937,0.71875 2.0625,1.15625 z m 1.23437,14.578125 q 1.23438,-0.15625 2.03125,-1.0625 0.8125,-0.921875 0.8125,-2.265625 0,-1.140625 -0.57812,-1.84375 -0.5625,-0.703125 -2.26563,-1.25 z m 14,2.453125 2.04688,0.3125 q 0.125,0.9375 0.71875,1.375 0.78125,0.59375 2.14062,0.59375 1.46875,0 2.26563,-0.59375 0.79687,-0.578125 1.07812,-1.640625 0.15625,-0.640625 0.14063,-2.703125 -1.375,1.625 -3.4375,1.625 -2.5625,0 -3.96875,-1.84375 -1.40625,-1.859375 -1.40625,-4.453125 0,-1.78125 0.64062,-3.28125 0.64063,-1.515625 1.85938,-2.328125 1.23437,-0.828125 2.89062,-0.828125 2.20313,0 3.625,1.78125 v -1.5 h 1.95313 v 10.765625 q 0,2.90625 -0.59375,4.109375 -0.59375,1.21875 -1.875,1.921875 -1.28125,0.703125 -3.15625,0.703125 -2.23438,0 -3.60938,-1 -1.35937,-1 -1.3125,-3.015625 z m 1.73438,-7.484375 q 0,2.453125 0.96875,3.578125 0.98437,1.125 2.45312,1.125 1.45313,0 2.4375,-1.109375 0.98438,-1.125 0.98438,-3.515625 0,-2.28125 -1.01563,-3.4375 -1.01562,-1.171875 -2.45312,-1.171875 -1.40625,0 -2.39063,1.140625 -0.98437,1.140625 -0.98437,3.390625 z m 12.00391,-8.296875 v -2.4375 h 2.10937 v 2.4375 z m 0,14.75 V 24.51505 h 2.10937 v 12.453125 z m 9.92578,-1.890625 0.3125,1.859375 q -0.89063,0.203125 -1.59375,0.203125 -1.15625,0 -1.79688,-0.359375 -0.625,-0.375 -0.89062,-0.96875 -0.25,-0.59375 -0.25,-2.484375 v -7.171875 h -1.54688 V 24.51505 h 1.54688 V 21.436925 L 409.3458,20.1713 v 4.34375 h 2.125 v 1.640625 h -2.125 v 7.28125 q 0,0.90625 0.10937,1.171875 0.125,0.25 0.375,0.40625 0.25,0.140625 0.71875,0.140625 0.34375,0 0.92188,-0.07813 z m 8.71093,1.890625 V 24.51505 h 1.89063 v 1.890625 q 0.73437,-1.328125 1.34375,-1.75 0.625,-0.421875 1.35937,-0.421875 1.0625,0 2.17188,0.6875 l -0.73438,1.953125 q -0.76562,-0.453125 -1.54687,-0.453125 -0.6875,0 -1.25,0.421875 -0.54688,0.40625 -0.78125,1.140625 -0.34375,1.125 -0.34375,2.46875 v 6.515625 z m 16.53907,-4.015625 2.17187,0.28125 q -0.51562,1.90625 -1.90625,2.96875 -1.39062,1.046875 -3.5625,1.046875 -2.73437,0 -4.34375,-1.671875 -1.59375,-1.6875 -1.59375,-4.734375 0,-3.140625 1.60938,-4.875 1.625,-1.734375 4.20312,-1.734375 2.5,0 4.07813,1.703125 1.59375,1.703125 1.59375,4.78125 0,0.1875 -0.0156,0.5625 h -9.28125 q 0.10938,2.046875 1.15625,3.140625 1.04688,1.09375 2.60938,1.09375 1.15625,0 1.96875,-0.609375 0.82812,-0.609375 1.3125,-1.953125 z m -6.9375,-3.40625 h 6.95312 q -0.14062,-1.5625 -0.79687,-2.359375 -1,-1.21875 -2.60938,-1.21875 -1.45312,0 -2.45312,0.984375 -0.98438,0.96875 -1.09375,2.59375 z m 10.91015,3.703125 2.09375,-0.328125 q 0.17188,1.25 0.96875,1.921875 0.8125,0.671875 2.25,0.671875 1.45313,0 2.15625,-0.59375 0.70313,-0.59375 0.70313,-1.390625 0,-0.71875 -0.625,-1.125 -0.42188,-0.28125 -2.15625,-0.71875 -2.3125,-0.578125 -3.21875,-1 -0.89063,-0.4375 -1.35938,-1.1875 -0.45312,-0.765625 -0.45312,-1.671875 0,-0.828125 0.375,-1.53125 0.39062,-0.71875 1.04687,-1.1875 0.48438,-0.359375 1.32813,-0.609375 0.85937,-0.265625 1.82812,-0.265625 1.46875,0 2.57813,0.421875 1.10937,0.421875 1.625,1.15625 0.53125,0.71875 0.73437,1.921875 l -2.0625,0.28125 q -0.14062,-0.96875 -0.8125,-1.5 -0.67187,-0.546875 -1.90625,-0.546875 -1.45312,0 -2.07812,0.484375 -0.625,0.484375 -0.625,1.125 0,0.40625 0.26562,0.734375 0.25,0.34375 0.8125,0.5625 0.3125,0.125 1.85938,0.546875 2.23437,0.59375 3.10937,0.984375 0.89063,0.375 1.39063,1.109375 0.51562,0.71875 0.51562,1.796875 0,1.046875 -0.625,1.984375 -0.60937,0.9375 -1.76562,1.453125 -1.15625,0.5 -2.625,0.5 -2.42188,0 -3.70313,-1 -1.26562,-1.015625 -1.625,-3 z m 21.375,-0.296875 2.17188,0.28125 q -0.51563,1.90625 -1.90625,2.96875 -1.39063,1.046875 -3.5625,1.046875 -2.73438,0 -4.34375,-1.671875 -1.59375,-1.6875 -1.59375,-4.734375 0,-3.140625 1.60937,-4.875 1.625,-1.734375 4.20313,-1.734375 2.5,0 4.07812,1.703125 1.59375,1.703125 1.59375,4.78125 0,0.1875 -0.0156,0.5625 h -9.28125 q 0.10937,2.046875 1.15625,3.140625 1.04687,1.09375 2.60937,1.09375 1.15625,0 1.96875,-0.609375 0.82813,-0.609375 1.3125,-1.953125 z m -6.9375,-3.40625 h 6.95313 q -0.14063,-1.5625 -0.79688,-2.359375 -1,-1.21875 -2.60937,-1.21875 -1.45313,0 -2.45313,0.984375 -0.98437,0.96875 -1.09375,2.59375 z m 16.36328,5.53125 0.3125,1.859375 q -0.89062,0.203125 -1.59375,0.203125 -1.15625,0 -1.79687,-0.359375 -0.625,-0.375 -0.89063,-0.96875 -0.25,-0.59375 -0.25,-2.484375 v -7.171875 h -1.54687 V 24.51505 h 1.54687 v -3.078125 l 2.09375,-1.265625 v 4.34375 h 2.125 v 1.640625 h -2.125 v 7.28125 q 0,0.90625 0.10938,1.171875 0.125,0.25 0.375,0.40625 0.25,0.140625 0.71875,0.140625 0.34375,0 0.92187,-0.07813 z m 19.22654,-0.140625 v 2.03125 h -11.34372 q -0.0312,-0.765625 0.23437,-1.46875 0.4375,-1.15625 1.39063,-2.28125 0.95312,-1.125 2.76559,-2.609375 2.79688,-2.296875 3.78125,-3.625 0.98438,-1.34375 0.98438,-2.546875 0,-1.25 -0.90625,-2.109375 -0.89063,-0.859375 -2.32813,-0.859375 -1.51562,0 -2.43747,0.921875 -0.90625,0.90625 -0.92187,2.515625 l -2.17188,-0.21875 q 0.21875,-2.421875 1.67188,-3.6875 1.45312,-1.28125 3.90622,-1.28125 2.46875,0 3.90625,1.375 1.45312,1.359375 1.45312,3.390625 0,1.03125 -0.42187,2.03125 -0.42188,1 -1.40625,2.109375 -0.96875,1.09375 -3.25,3.015625 -1.89063,1.59375 -2.43747,2.15625 -0.53125,0.5625 -0.89063,1.140625 z m 2.26953,-6.4375 q 0,-3.046875 0.625,-4.90625 0.625,-1.859375 1.85937,-2.859375 1.23438,-1.015625 3.10938,-1.015625 1.39062,0 2.42187,0.5625 1.04688,0.546875 1.71875,1.59375 0.6875,1.046875 1.07813,2.5625 0.39062,1.5 0.39062,4.0625 0,3.015625 -0.625,4.875 -0.625,1.859375 -1.85937,2.875 -1.23438,1.015625 -3.125,1.015625 -2.48438,0 -3.89063,-1.78125 -1.70312,-2.15625 -1.70312,-6.984375 z m 2.17187,0 q 0,4.21875 0.98438,5.625 0.98437,1.40625 2.4375,1.40625 1.45312,0 2.4375,-1.40625 1,-1.40625 1,-5.625 0,-4.25 -1,-5.640625 -0.98438,-1.390625 -2.45313,-1.390625 -1.45312,0 -2.32812,1.21875 -1.07813,1.578125 -1.07813,5.8125 z m 19.87891,6.9375 q -1.17188,0.984375 -2.26563,1.40625 -1.07812,0.40625 -2.3125,0.40625 -2.04687,0 -3.15625,-1 -1.09375,-1 -1.09375,-2.5625 0,-0.921875 0.40625,-1.671875 0.42188,-0.75 1.09375,-1.203125 0.67188,-0.46875 1.51563,-0.703125 0.625,-0.15625 1.875,-0.3125 2.5625,-0.3125 3.76562,-0.734375 0.0156,-0.421875 0.0156,-0.546875 0,-1.28125 -0.60938,-1.8125 -0.79687,-0.71875 -2.39062,-0.71875 -1.5,0 -2.20313,0.53125 -0.70312,0.515625 -1.04687,1.84375 l -2.0625,-0.28125 q 0.28125,-1.328125 0.92187,-2.140625 0.64063,-0.8125 1.85938,-1.25 1.21875,-0.453125 2.82812,-0.453125 1.59375,0 2.59375,0.375 1,0.375 1.46875,0.953125 0.46875,0.5625 0.65625,1.4375 0.0937,0.53125 0.0937,1.9375 v 2.8125 q 0,2.9375 0.14063,3.71875 0.14062,0.78125 0.53125,1.5 h -2.20313 q -0.32812,-0.65625 -0.42187,-1.53125 z m -0.17188,-4.71875 q -1.15625,0.46875 -3.45312,0.796875 -1.29688,0.1875 -1.84375,0.421875 -0.53125,0.234375 -0.82813,0.6875 -0.28125,0.453125 -0.28125,1 0,0.84375 0.625,1.40625 0.64063,0.5625 1.875,0.5625 1.21875,0 2.17188,-0.53125 0.95312,-0.53125 1.39062,-1.453125 0.34375,-0.71875 0.34375,-2.109375 z m 11.58203,6.25 V 32.8588 h -7.45312 v -1.9375 l 7.82812,-11.140625 h 1.73438 V 30.9213 h 2.3125 v 1.9375 h -2.3125 v 4.109375 z m 0,-6.046875 v -7.75 l -5.39062,7.75 z"
     fill-rule="nonzero"
     id="path53" />
  <path
     fill="#f54d27"
     d="m 315.73723,105.91728 h 113.32284 v 36.6929 H 315.73723 Z"
     fill-rule="evenodd"
     id="path55" />
  <path
     stroke="#000000"
     stroke-width="2"
     stroke-linejoin="round"
     stroke-linecap="butt"
     stroke-dasharray="8, 6"
     d="m 315.73723,105.91728 h 113.32284 v 36.6929 H 315.73723 Z"
     fill-rule="evenodd"
     id="path57" />
  <path
     fill="#ffffff"
     d="m 346.22484,131.46372 v -14.31249 h 1.89062 v 5.875 h 7.4375 v -5.875 h 1.89063 v 14.31249 h -1.89063 v -6.74999 h -7.4375 v 6.74999 z m 14.41211,0 v -14.31249 h 10.35937 v 1.6875 h -8.45312 v 4.375 h 7.90625 v 1.6875 h -7.90625 v 4.87499 h 8.78125 v 1.6875 z m 11.73047,0 5.5,-14.31249 h 2.04687 l 5.85938,14.31249 h -2.15625 l -1.67188,-4.34374 h -5.98437 l -1.57813,4.34374 z m 4.14062,-5.87499 h 4.84375 l -1.48437,-3.96875 q -0.6875,-1.8125 -1.01563,-2.96875 -0.28125,1.375 -0.78125,2.73437 z m 10.77735,5.87499 v -14.31249 h 4.92187 q 1.67188,0 2.5625,0.20312 1.21875,0.28125 2.09375,1.01563 1.125,0.96875 1.6875,2.45312 0.5625,1.48438 0.5625,3.40625 0,1.625 -0.375,2.89063 -0.375,1.24999 -0.98437,2.07812 -0.59375,0.82812 -1.29688,1.3125 -0.70312,0.46875 -1.70312,0.71875 -1,0.23437 -2.3125,0.23437 z m 1.89062,-1.6875 h 3.0625 q 1.40625,0 2.20313,-0.26562 0.8125,-0.26563 1.29687,-0.75 0.67188,-0.67188 1.04688,-1.79687 0.375,-1.14063 0.375,-2.76563 0,-2.25 -0.73438,-3.45312 -0.73437,-1.20313 -1.79687,-1.60938 -0.75,-0.29687 -2.4375,-0.29687 h -3.01563 z"
     fill-rule="nonzero"
     id="path59" />
  <path
     fill="#000000"
     fill-opacity="0"
     d="m 372.39867,142.61017 v 24.31497"
     fill-rule="evenodd"
     id="path61" />
  <path
     stroke="#000000"
     stroke-width="1"
     stroke-linejoin="round"
     stroke-linecap="butt"
     d="m 372.39867,142.61017 v 18.31496"
     fill-rule="evenodd"
     id="path63" />
  <path
     fill="#000000"
     stroke="#000000"
     stroke-width="1"
     stroke-linecap="butt"
     d="m 370.74694,160.92513 1.65173,4.5381 1.65174,-4.5381 z"
     fill-rule="evenodd"
     id="path65" />
  <path
     fill="#d9d9d9"
     d="m 223.61162,159.22831 v 0 c 0,-9.35329 7.58235,-16.93565 16.93565,-16.93565 h 47.64049 v 0 c 4.49164,0 8.79929,1.78428 11.97531,4.96032 3.17606,3.17606 4.96036,7.48371 4.96036,11.97533 v 11.29404 c 0,9.3533 -7.58237,16.93566 -16.93567,16.93566 h -47.64049 c -9.3533,0 -16.93565,-7.58235 -16.93565,-16.93566 z"
     fill-rule="evenodd"
     id="path67" />
  <path
     fill="#000000"
     d="m 252.18391,170.38783 v 1.6875 h -9.45311 q -0.0156,-0.64063 0.20312,-1.21875 0.35938,-0.96875 1.15625,-1.90625 0.79688,-0.9375 2.29686,-2.17188 2.34375,-1.90625 3.15625,-3.01562 0.82813,-1.125 0.82813,-2.125 0,-1.04688 -0.75,-1.76563 -0.75,-0.71875 -1.95313,-0.71875 -1.26562,0 -2.03123,0.76563 -0.76563,0.76562 -0.76563,2.10937 l -1.8125,-0.1875 q 0.1875,-2.01562 1.39063,-3.07812 1.21875,-1.0625 3.26561,-1.0625 2.04687,0 3.25,1.14062 1.20312,1.14063 1.20312,2.82813 0,0.85937 -0.35937,1.70312 -0.34375,0.82813 -1.15625,1.75 -0.8125,0.90625 -2.70313,2.51563 -1.59375,1.32812 -2.04686,1.79687 -0.4375,0.46875 -0.73437,0.95313 z m 1.88867,-5.375 q 0,-2.53125 0.51563,-4.07813 0.53125,-1.5625 1.5625,-2.39062 1.03125,-0.84375 2.59375,-0.84375 1.15625,0 2.01562,0.46875 0.875,0.45312 1.4375,1.32812 0.5625,0.875 0.89063,2.14063 0.32812,1.25 0.32812,3.375 0,2.51562 -0.53125,4.0625 -0.51562,1.54687 -1.54687,2.40625 -1.01563,0.84375 -2.59375,0.84375 -2.07813,0 -3.25,-1.48438 -1.42188,-1.79687 -1.42188,-5.82812 z m 1.8125,0 q 0,3.53125 0.8125,4.70312 0.82813,1.15625 2.04688,1.15625 1.20312,0 2.03125,-1.17187 0.82812,-1.17188 0.82812,-4.6875 0,-3.53125 -0.82812,-4.6875 -0.82813,-1.17188 -2.04688,-1.17188 -1.21875,0 -1.9375,1.03125 -0.90625,1.29688 -0.90625,4.82813 z m 16.57617,5.78125 q -0.98437,0.82812 -1.89062,1.17187 -0.90625,0.34375 -1.9375,0.34375 -1.70313,0 -2.625,-0.82812 -0.92188,-0.84375 -0.92188,-2.14063 0,-0.76562 0.34375,-1.39062 0.35938,-0.625 0.92188,-1 0.5625,-0.39063 1.26562,-0.59375 0.51563,-0.125 1.5625,-0.26563 2.125,-0.25 3.125,-0.59375 0.0156,-0.35937 0.0156,-0.46875 0,-1.0625 -0.5,-1.51562 -0.67188,-0.59375 -2,-0.59375 -1.25,0 -1.84375,0.4375 -0.57813,0.4375 -0.85938,1.54687 l -1.71875,-0.23437 q 0.23438,-1.10938 0.76563,-1.78125 0.53125,-0.6875 1.54687,-1.04688 1.01563,-0.375 2.35938,-0.375 1.32812,0 2.15625,0.3125 0.82812,0.3125 1.21875,0.79688 0.39062,0.46875 0.54687,1.1875 0.0937,0.45312 0.0937,1.625 v 2.34375 q 0,2.45312 0.10938,3.10937 0.10937,0.64063 0.45312,1.23438 h -1.84375 q -0.26562,-0.54688 -0.34375,-1.28125 z M 272.305,166.8722 q -0.95312,0.39063 -2.875,0.65625 -1.07812,0.15625 -1.53125,0.35938 -0.4375,0.1875 -0.6875,0.5625 -0.25,0.375 -0.25,0.84375 0,0.70312 0.53125,1.17187 0.53125,0.46875 1.5625,0.46875 1.01563,0 1.79688,-0.4375 0.79687,-0.45312 1.17187,-1.21875 0.28125,-0.60937 0.28125,-1.76562 z m 9.6543,5.20313 v -3.42188 h -6.21875 v -1.625 l 6.53125,-9.26562 h 1.4375 v 9.26562 h 1.9375 v 1.625 h -1.9375 v 3.42188 z m 0,-5.04688 v -6.45312 l -4.48437,6.45312 z"
     fill-rule="nonzero"
     id="path69" />
  <path
     fill="#000000"
     fill-opacity="0"
     d="m 223.61162,164.87532 -67.27559,63.08661"
     fill-rule="evenodd"
     id="path71" />
  <path
     stroke="#000000"
     stroke-width="1"
     stroke-linejoin="round"
     stroke-linecap="butt"
     d="m 223.61162,164.87532 -62.8989,58.98243"
     fill-rule="evenodd"
     id="path73" />
  <path
     fill="#000000"
     stroke="#000000"
     stroke-width="1"
     stroke-linecap="butt"
     d="m 159.58289,222.65288 -2.18048,4.30909 4.44017,-1.89936 z"
     fill-rule="evenodd"
     id="path75" />
  <path
     fill="#d9d9d9"
     d="m 488.60598,244.88186 v 0 c 0,-9.3533 7.58237,-16.93567 16.93564,-16.93567 h 47.6405 v 0 c 4.49164,0 8.79926,1.78429 11.97534,4.96035 3.17603,3.17602 4.96033,7.48367 4.96033,11.97531 v 11.29404 c 0,9.3533 -7.58234,16.93563 -16.93567,16.93563 h -47.6405 c -9.35327,0 -16.93564,-7.58233 -16.93564,-16.93563 z"
     fill-rule="evenodd"
     id="path77" />
  <path
     fill="#000000"
     d="m 510.72711,250.66638 q 0,-2.53125 0.51563,-4.07813 0.53125,-1.5625 1.5625,-2.39062 1.03125,-0.84375 2.59375,-0.84375 1.15625,0 2.01562,0.46875 0.875,0.45312 1.4375,1.32812 0.5625,0.875 0.89063,2.14063 0.32812,1.25 0.32812,3.375 0,2.51562 -0.53125,4.0625 -0.51562,1.54687 -1.54687,2.40625 -1.01563,0.84375 -2.59375,0.84375 -2.07813,0 -3.25,-1.48438 -1.42188,-1.79687 -1.42188,-5.82812 z m 1.8125,0 q 0,3.53125 0.8125,4.70312 0.82813,1.15625 2.04688,1.15625 1.20312,0 2.03125,-1.17187 0.82812,-1.17188 0.82812,-4.6875 0,-3.53125 -0.82812,-4.6875 -0.82813,-1.17188 -2.04688,-1.17188 -1.21875,0 -1.9375,1.03125 -0.90625,1.29688 -0.90625,4.82813 z m 18.54492,5.375 v 1.6875 h -9.45312 q -0.0156,-0.64063 0.20312,-1.21875 0.35938,-0.96875 1.15625,-1.90625 0.79688,-0.9375 2.29688,-2.17188 2.34375,-1.90625 3.15625,-3.01562 0.82812,-1.125 0.82812,-2.125 0,-1.04688 -0.75,-1.76563 -0.75,-0.71875 -1.95312,-0.71875 -1.26563,0 -2.03125,0.76563 -0.76563,0.76562 -0.76563,2.10937 l -1.8125,-0.1875 q 0.1875,-2.01562 1.39063,-3.07812 1.21875,-1.0625 3.26562,-1.0625 2.04688,0 3.25,1.14062 1.20313,1.14063 1.20313,2.82813 0,0.85937 -0.35938,1.70312 -0.34375,0.82813 -1.15625,1.75 -0.8125,0.90625 -2.70312,2.51563 -1.59375,1.32812 -2.04688,1.79687 -0.4375,0.46875 -0.73437,0.95313 z m 2.79492,1.6875 v -9 h -1.54687 v -1.375 h 1.54687 v -1.09375 q 0,-1.04688 0.1875,-1.5625 0.25,-0.6875 0.89063,-1.10938 0.64062,-0.42187 1.79687,-0.42187 0.75,0 1.64063,0.17187 l -0.26563,1.53125 q -0.54687,-0.0937 -1.03125,-0.0937 -0.79687,0 -1.14062,0.34375 -0.32813,0.34375 -0.32813,1.28125 v 0.95312 h 2.03125 v 1.375 h -2.03125 v 9 z m 12.24414,-3.34375 1.8125,0.23437 q -0.42187,1.57813 -1.59375,2.46875 -1.15625,0.875 -2.96875,0.875 -2.26562,0 -3.60937,-1.39062 -1.32813,-1.40625 -1.32813,-3.9375 0,-2.625 1.34375,-4.0625 1.34375,-1.45313 3.5,-1.45313 2.07813,0 3.39063,1.42188 1.32812,1.40625 1.32812,3.98437 0,0.15625 -0.0156,0.46875 h -7.73438 q 0.0937,1.70313 0.96875,2.60938 0.875,0.90625 2.17188,0.90625 0.96875,0 1.64062,-0.5 0.6875,-0.51563 1.09375,-1.625 z m -5.78125,-2.84375 h 5.79688 q -0.10938,-1.29688 -0.65625,-1.95313 -0.84375,-1.01562 -2.1875,-1.01562 -1.20313,0 -2.03125,0.8125 -0.82813,0.79687 -0.92188,2.15625 z"
     fill-rule="nonzero"
     id="path79" />
  <path
     fill="#d9d9d9"
     d="m 597.79751,244.88186 v 0 c 0,-9.3533 7.58234,-16.93567 16.93567,-16.93567 h 47.6405 v 0 c 4.49164,0 8.79926,1.78429 11.97534,4.96035 3.17603,3.17602 4.96033,7.48367 4.96033,11.97531 v 11.29404 c 0,9.3533 -7.58234,16.93563 -16.93567,16.93563 h -47.6405 c -9.35333,0 -16.93567,-7.58233 -16.93567,-16.93563 z"
     fill-rule="evenodd"
     id="path81" />
  <path
     fill="#000000"
     d="m 619.83861,249.96325 q -1.09375,-0.40625 -1.625,-1.14062 -0.51563,-0.75 -0.51563,-1.78125 0,-1.5625 1.125,-2.625 1.125,-1.0625 2.98438,-1.0625 1.875,0 3.01562,1.09375 1.14063,1.07812 1.14063,2.64062 0,1 -0.53125,1.73438 -0.51563,0.73437 -1.57813,1.14062 1.32813,0.4375 2.01563,1.39063 0.6875,0.95312 0.6875,2.28125 0,1.84375 -1.3125,3.09375 -1.29688,1.25 -3.40625,1.25 -2.125,0 -3.42188,-1.25 -1.29687,-1.26563 -1.29687,-3.14063 0,-1.39062 0.70312,-2.32812 0.71875,-0.95313 2.01563,-1.29688 z m -0.34375,-2.98437 q 0,1.01562 0.65625,1.67187 0.65625,0.64063 1.6875,0.64063 1.01562,0 1.67187,-0.64063 0.65625,-0.64062 0.65625,-1.5625 0,-0.96875 -0.67187,-1.625 -0.67188,-0.67187 -1.67188,-0.67187 -1,0 -1.67187,0.65625 -0.65625,0.64062 -0.65625,1.53125 z m -0.5625,6.625 q 0,0.75 0.34375,1.45312 0.35937,0.70313 1.0625,1.09375 0.70312,0.375 1.51562,0.375 1.26563,0 2.07813,-0.8125 0.82812,-0.8125 0.82812,-2.0625 0,-1.26562 -0.84375,-2.09375 -0.84375,-0.82812 -2.125,-0.82812 -1.23437,0 -2.04687,0.82812 -0.8125,0.8125 -0.8125,2.04688 z m 9.45117,-8.3125 v -1.6875 h 9.26563 v 1.35937 q -1.375,1.45313 -2.71875,3.875 -1.34375,2.40625 -2.0625,4.95313 -0.53125,1.79687 -0.6875,3.9375 h -1.79688 q 0.0312,-1.6875 0.65625,-4.07813 0.64063,-2.39062 1.82813,-4.60937 1.1875,-2.23438 2.51562,-3.75 z m 20.23242,10.75 v 1.6875 h -9.45312 q -0.0156,-0.64063 0.20312,-1.21875 0.35938,-0.96875 1.15625,-1.90625 0.79688,-0.9375 2.29688,-2.17188 2.34375,-1.90625 3.15625,-3.01562 0.82812,-1.125 0.82812,-2.125 0,-1.04688 -0.75,-1.76563 -0.75,-0.71875 -1.95312,-0.71875 -1.26563,0 -2.03125,0.76563 -0.76563,0.76562 -0.76563,2.10937 l -1.8125,-0.1875 q 0.1875,-2.01562 1.39063,-3.07812 1.21875,-1.0625 3.26562,-1.0625 2.04688,0 3.25,1.14062 1.20313,1.14063 1.20313,2.82813 0,0.85937 -0.35938,1.70312 -0.34375,0.82813 -1.15625,1.75 -0.8125,0.90625 -2.70312,2.51563 -1.59375,1.32812 -2.04688,1.79687 -0.4375,0.46875 -0.73437,0.95313 z m 9.1543,0.40625 q -0.98437,0.82812 -1.89062,1.17187 -0.90625,0.34375 -1.9375,0.34375 -1.70313,0 -2.625,-0.82812 -0.92188,-0.84375 -0.92188,-2.14063 0,-0.76562 0.34375,-1.39062 0.35938,-0.625 0.92188,-1 0.5625,-0.39063 1.26562,-0.59375 0.51563,-0.125 1.5625,-0.26563 2.125,-0.25 3.125,-0.59375 0.0156,-0.35937 0.0156,-0.46875 0,-1.0625 -0.5,-1.51562 -0.67188,-0.59375 -2,-0.59375 -1.25,0 -1.84375,0.4375 -0.57813,0.4375 -0.85938,1.54687 l -1.71875,-0.23437 q 0.23438,-1.10938 0.76563,-1.78125 0.53125,-0.6875 1.54687,-1.04688 1.01563,-0.375 2.35938,-0.375 1.32812,0 2.15625,0.3125 0.82812,0.3125 1.21875,0.79688 0.39062,0.46875 0.54687,1.1875 0.0937,0.45312 0.0937,1.625 v 2.34375 q 0,2.45312 0.10938,3.10937 0.10937,0.64063 0.45312,1.23438 h -1.84375 q -0.26562,-0.54688 -0.34375,-1.28125 z m -0.15625,-3.92188 q -0.95312,0.39063 -2.875,0.65625 -1.07812,0.15625 -1.53125,0.35938 -0.4375,0.1875 -0.6875,0.5625 -0.25,0.375 -0.25,0.84375 0,0.70312 0.53125,1.17187 0.53125,0.46875 1.5625,0.46875 1.01563,0 1.79688,-0.4375 0.79687,-0.45312 1.17187,-1.21875 0.28125,-0.60937 0.28125,-1.76562 z"
     fill-rule="nonzero"
     id="path83" />
  <path
     fill="#000000"
     fill-opacity="0"
     d="m 597.79751,250.52886 h -27.685"
     fill-rule="evenodd"
     id="path85" />
  <path
     stroke="#000000"
     stroke-width="1"
     stroke-linejoin="round"
     stroke-linecap="butt"
     d="M 597.79751,250.52886 H 576.11245"
     fill-rule="evenodd"
     id="path87" />
  <path
     fill="#000000"
     stroke="#000000"
     stroke-width="1"
     stroke-linecap="butt"
     d="m 576.11248,248.87713 -4.53809,1.65173 4.53809,1.65174 z"
     fill-rule="evenodd"
     id="path89" />
  <path
     fill="#f54d27"
     d="M 689.92357,81.300465 H 803.24645 V 117.99338 H 689.92357 Z"
     fill-rule="evenodd"
     id="path91" />
  <path
     fill="#ffffff"
     d="M 726.22271,106.84694 V 96.471935 h 1.57812 v 1.45312 q 0.48438,-0.75 1.29688,-1.21875 0.8125,-0.46875 1.84375,-0.46875 1.15625,0 1.89062,0.48438 0.73438,0.46875 1.04688,1.32812 1.23437,-1.8125 3.20312,-1.8125 1.54688,0 2.375,0.85938 0.82813,0.85937 0.82813,2.625 v 7.125005 h -1.75 v -6.53125 q 0,-1.062505 -0.17188,-1.515635 -0.17187,-0.46875 -0.625,-0.75 -0.4375,-0.28125 -1.04687,-0.28125 -1.09375,0 -1.82813,0.73438 -0.71875,0.71875 -0.71875,2.312505 v 6.03125 h -1.75 v -6.73438 q 0,-1.171875 -0.4375,-1.750005 -0.42187,-0.59375 -1.40625,-0.59375 -0.73437,0 -1.375,0.39063 -0.625,0.39062 -0.90625,1.14062 -0.28125,0.750005 -0.28125,2.171885 v 5.375 z m 23.44141,-1.28125 q -0.98438,0.82812 -1.89063,1.17187 -0.90625,0.34375 -1.9375,0.34375 -1.70312,0 -2.625,-0.82812 -0.92187,-0.84375 -0.92187,-2.14063 0,-0.76562 0.34375,-1.39062 0.35937,-0.625 0.92187,-1 0.5625,-0.39063 1.26563,-0.59375 0.51562,-0.125 1.5625,-0.26563 2.125,-0.25 3.125,-0.59375 0.0156,-0.359375 0.0156,-0.468755 0,-1.0625 -0.5,-1.51562 -0.67187,-0.59375 -2,-0.59375 -1.25,0 -1.84375,0.4375 -0.57812,0.4375 -0.85937,1.54687 l -1.71875,-0.23437 q 0.23437,-1.10938 0.76562,-1.78125 0.53125,-0.6875 1.54688,-1.04688 1.01562,-0.375 2.35937,-0.375 1.32813,0 2.15625,0.3125 0.82813,0.3125 1.21875,0.79688 0.39063,0.46875 0.54688,1.1875 0.0937,0.45312 0.0937,1.625005 v 2.34375 q 0,2.45312 0.10937,3.10937 0.10938,0.64063 0.45313,1.23438 h -1.84375 q -0.26563,-0.54688 -0.34375,-1.28125 z m -0.15625,-3.92188 q -0.95313,0.39063 -2.875,0.65625 -1.07813,0.15625 -1.53125,0.35938 -0.4375,0.1875 -0.6875,0.5625 -0.25,0.375 -0.25,0.84375 0,0.70312 0.53125,1.17187 0.53125,0.46875 1.5625,0.46875 1.01562,0 1.79687,-0.4375 0.79688,-0.45312 1.17188,-1.21875 0.28125,-0.60937 0.28125,-1.76562 z m 4.51367,-7.093755 v -2.01563 h 1.76562 v 2.01563 z m 0,12.296885 V 96.471935 h 1.76562 v 10.375005 z m 4.42773,0 V 96.471935 h 1.59375 v 1.48438 q 1.14063,-1.71875 3.29688,-1.71875 0.9375,0 1.71875,0.34375 0.79687,0.32812 1.1875,0.875 0.39062,0.54687 0.54687,1.29687 0.0937,0.5 0.0937,1.718755 v 6.375 h -1.76562 v -6.3125 q 0,-1.078125 -0.20313,-1.609375 -0.20312,-0.53125 -0.73437,-0.84375 -0.51563,-0.3125 -1.21875,-0.3125 -1.125,0 -1.9375,0.71875 -0.8125,0.70312 -0.8125,2.687495 v 5.67188 z"
     fill-rule="nonzero"
     id="path93" />
  <path
     fill="#000000"
     fill-opacity="0"
     d="m 746.58501,117.99339 v 24.31496"
     fill-rule="evenodd"
     id="path95" />
  <path
     stroke="#000000"
     stroke-width="1"
     stroke-linejoin="round"
     stroke-linecap="butt"
     d="m 746.58501,117.99339 v 18.31496"
     fill-rule="evenodd"
     id="path97" />
  <path
     fill="#000000"
     stroke="#000000"
     stroke-width="1"
     stroke-linecap="butt"
     d="m 744.93328,136.30834 1.65173,4.53811 1.65174,-4.5381 z"
     fill-rule="evenodd"
     id="path99" />
  <path
     fill="#d9d9d9"
     d="m 705.82946,244.88186 v 0 c 0,-9.3533 7.58234,-16.93567 16.93567,-16.93567 h 47.6405 v 0 c 4.49164,0 8.79926,1.78429 11.97528,4.96035 3.17609,3.17602 4.96039,7.48367 4.96039,11.97531 v 11.29404 c 0,9.3533 -7.5824,16.93563 -16.93567,16.93563 h -47.6405 c -9.35333,0 -16.93567,-7.58233 -16.93567,-16.93563 z"
     fill-rule="evenodd"
     id="path101" />
  <path
     fill="#000000"
     d="m 725.99456,254.41638 1.6875,-0.15625 q 0.21875,1.1875 0.8125,1.73437 0.60937,0.53125 1.5625,0.53125 0.8125,0 1.42187,-0.35937 0.60938,-0.375 1,-1 0.39063,-0.625 0.65625,-1.67188 0.26563,-1.0625 0.26563,-2.15625 0,-0.10937 -0.0156,-0.34375 -0.53125,0.82813 -1.4375,1.35938 -0.90625,0.51562 -1.98437,0.51562 -1.76563,0 -3,-1.28125 -1.23438,-1.29687 -1.23438,-3.40625 0,-2.17187 1.28125,-3.5 1.29688,-1.32812 3.21875,-1.32812 1.40625,0 2.5625,0.75 1.15625,0.75 1.75,2.14062 0.60938,1.39063 0.60938,4.03125 0,2.75 -0.60938,4.375 -0.59375,1.625 -1.76562,2.48438 -1.17188,0.84375 -2.75,0.84375 -1.6875,0 -2.75,-0.9375 -1.0625,-0.9375 -1.28125,-2.625 z m 7.20312,-6.3125 q 0,-1.51563 -0.8125,-2.40625 -0.79687,-0.89063 -1.9375,-0.89063 -1.17187,0 -2.04687,0.96875 -0.85938,0.95313 -0.85938,2.46875 0,1.375 0.8125,2.23438 0.82813,0.84375 2.04688,0.84375 1.21875,0 2,-0.84375 0.79687,-0.85938 0.79687,-2.375 z m 6.35743,1.85937 q -1.09375,-0.40625 -1.625,-1.14062 -0.51563,-0.75 -0.51563,-1.78125 0,-1.5625 1.125,-2.625 1.125,-1.0625 2.98438,-1.0625 1.875,0 3.01562,1.09375 1.14063,1.07812 1.14063,2.64062 0,1 -0.53125,1.73438 -0.51563,0.73437 -1.57813,1.14062 1.32813,0.4375 2.01563,1.39063 0.6875,0.95312 0.6875,2.28125 0,1.84375 -1.3125,3.09375 -1.29688,1.25 -3.40625,1.25 -2.125,0 -3.42188,-1.25 -1.29687,-1.26563 -1.29687,-3.14063 0,-1.39062 0.70312,-2.32812 0.71875,-0.95313 2.01563,-1.29688 z m -0.34375,-2.98437 q 0,1.01562 0.65625,1.67187 0.65625,0.64063 1.6875,0.64063 1.01562,0 1.67187,-0.64063 0.65625,-0.64062 0.65625,-1.5625 0,-0.96875 -0.67187,-1.625 -0.67188,-0.67187 -1.67188,-0.67187 -1,0 -1.67187,0.65625 -0.65625,0.64062 -0.65625,1.53125 z m -0.5625,6.625 q 0,0.75 0.34375,1.45312 0.35937,0.70313 1.0625,1.09375 0.70312,0.375 1.51562,0.375 1.26563,0 2.07813,-0.8125 0.82812,-0.8125 0.82812,-2.0625 0,-1.26562 -0.84375,-2.09375 -0.84375,-0.82812 -2.125,-0.82812 -1.23437,0 -2.04687,0.82812 -0.8125,0.8125 -0.8125,2.04688 z m 18.56054,2.4375 v 1.6875 h -9.45312 q -0.0156,-0.64063 0.20312,-1.21875 0.35938,-0.96875 1.15625,-1.90625 0.79688,-0.9375 2.29688,-2.17188 2.34375,-1.90625 3.15625,-3.01562 0.82812,-1.125 0.82812,-2.125 0,-1.04688 -0.75,-1.76563 -0.75,-0.71875 -1.95312,-0.71875 -1.26563,0 -2.03125,0.76563 -0.76563,0.76562 -0.76563,2.10937 l -1.8125,-0.1875 q 0.1875,-2.01562 1.39063,-3.07812 1.21875,-1.0625 3.26562,-1.0625 2.04688,0 3.25,1.14062 1.20313,1.14063 1.20313,2.82813 0,0.85937 -0.35938,1.70312 -0.34375,0.82813 -1.15625,1.75 -0.8125,0.90625 -2.70312,2.51563 -1.59375,1.32812 -2.04688,1.79687 -0.4375,0.46875 -0.73437,0.95313 z m 9.1543,-2.10938 1.71875,0.21875 q -0.28125,1.79688 -1.45312,2.8125 -1.15625,1 -2.85938,1 -2.125,0 -3.42187,-1.39062 -1.29688,-1.39063 -1.29688,-3.98438 0,-1.6875 0.54688,-2.9375 0.5625,-1.26562 1.70312,-1.89062 1.14063,-0.64063 2.48438,-0.64063 1.6875,0 2.75,0.85938 1.07812,0.85937 1.39062,2.42187 l -1.71875,0.26563 q -0.23437,-1.04688 -0.85937,-1.5625 -0.625,-0.53125 -1.5,-0.53125 -1.32813,0 -2.15625,0.95312 -0.82813,0.95313 -0.82813,3 0,2.09375 0.79688,3.04688 0.79687,0.9375 2.09375,0.9375 1.03125,0 1.71875,-0.625 0.70312,-0.64063 0.89062,-1.95313 z"
     fill-rule="nonzero"
     id="path103" />
  <path
     fill="#d9d9d9"
     d="m 813.86051,244.88186 v 0 c 0,-9.3533 7.5824,-16.93567 16.93567,-16.93567 h 47.6405 v 0 c 4.49164,0 8.79926,1.78429 11.97534,4.96035 3.17603,3.17602 4.96033,7.48367 4.96033,11.97531 v 11.29404 c 0,9.3533 -7.58234,16.93563 -16.93567,16.93563 h -47.6405 c -9.35327,0 -16.93567,-7.58233 -16.93567,-16.93563 z"
     fill-rule="evenodd"
     id="path105" />
  <path
     fill="#000000"
     d="m 842.32347,246.91638 -1.75,0.14062 q -0.23437,-1.03125 -0.65625,-1.5 -0.71875,-0.76562 -1.76562,-0.76562 -0.84375,0 -1.46875,0.46875 -0.82813,0.60937 -1.3125,1.78125 -0.48438,1.15625 -0.5,3.29687 0.64062,-0.95312 1.54687,-1.42187 0.92188,-0.46875 1.9375,-0.46875 1.75,0 2.98438,1.29687 1.23437,1.28125 1.23437,3.32813 0,1.35937 -0.57812,2.51562 -0.57813,1.15625 -1.59375,1.78125 -1.01563,0.60938 -2.3125,0.60938 -2.1875,0 -3.57813,-1.60938 -1.39062,-1.625 -1.39062,-5.34375 0,-4.14062 1.53125,-6.03125 1.34375,-1.64062 3.60937,-1.64062 1.6875,0 2.76563,0.95312 1.07812,0.9375 1.29687,2.60938 z m -7.17187,6.17187 q 0,0.90625 0.375,1.73438 0.39062,0.82812 1.07812,1.26562 0.70313,0.4375 1.45313,0.4375 1.125,0 1.92187,-0.89062 0.79688,-0.90625 0.79688,-2.45313 0,-1.48437 -0.79688,-2.32812 -0.78125,-0.85938 -1.98437,-0.85938 -1.1875,0 -2.01563,0.85938 -0.82812,0.84375 -0.82812,2.23437 z m 18.40429,2.95313 v 1.6875 h -9.45312 q -0.0156,-0.64063 0.20312,-1.21875 0.35938,-0.96875 1.15625,-1.90625 0.79688,-0.9375 2.29688,-2.17188 2.34375,-1.90625 3.15625,-3.01562 0.82812,-1.125 0.82812,-2.125 0,-1.04688 -0.75,-1.76563 -0.75,-0.71875 -1.95312,-0.71875 -1.26563,0 -2.03125,0.76563 -0.76563,0.76562 -0.76563,2.10937 l -1.8125,-0.1875 q 0.1875,-2.01562 1.39063,-3.07812 1.21875,-1.0625 3.26562,-1.0625 2.04688,0 3.25,1.14062 1.20313,1.14063 1.20313,2.82813 0,0.85937 -0.35938,1.70312 -0.34375,0.82813 -1.15625,1.75 -0.8125,0.90625 -2.70312,2.51563 -1.59375,1.32812 -2.04688,1.79687 -0.4375,0.46875 -0.73437,0.95313 z m 9.1543,0.40625 q -0.98438,0.82812 -1.89063,1.17187 -0.90625,0.34375 -1.9375,0.34375 -1.70312,0 -2.625,-0.82812 -0.92187,-0.84375 -0.92187,-2.14063 0,-0.76562 0.34375,-1.39062 0.35937,-0.625 0.92187,-1 0.5625,-0.39063 1.26563,-0.59375 0.51562,-0.125 1.5625,-0.26563 2.125,-0.25 3.125,-0.59375 0.0156,-0.35937 0.0156,-0.46875 0,-1.0625 -0.5,-1.51562 -0.67187,-0.59375 -2,-0.59375 -1.25,0 -1.84375,0.4375 -0.57812,0.4375 -0.85937,1.54687 l -1.71875,-0.23437 q 0.23437,-1.10938 0.76562,-1.78125 0.53125,-0.6875 1.54688,-1.04688 1.01562,-0.375 2.35937,-0.375 1.32813,0 2.15625,0.3125 0.82813,0.3125 1.21875,0.79688 0.39063,0.46875 0.54688,1.1875 0.0937,0.45312 0.0937,1.625 v 2.34375 q 0,2.45312 0.10937,3.10937 0.10938,0.64063 0.45313,1.23438 h -1.84375 q -0.26563,-0.54688 -0.34375,-1.28125 z m -0.15625,-3.92188 q -0.95313,0.39063 -2.875,0.65625 -1.07813,0.15625 -1.53125,0.35938 -0.4375,0.1875 -0.6875,0.5625 -0.25,0.375 -0.25,0.84375 0,0.70312 0.53125,1.17187 0.53125,0.46875 1.5625,0.46875 1.01562,0 1.79687,-0.4375 0.79688,-0.45312 1.17188,-1.21875 0.28125,-0.60937 0.28125,-1.76562 z m 11.60742,1.85938 1.8125,0.23437 q -0.42187,1.57813 -1.59375,2.46875 -1.15625,0.875 -2.96875,0.875 -2.26562,0 -3.60937,-1.39062 -1.32813,-1.40625 -1.32813,-3.9375 0,-2.625 1.34375,-4.0625 1.34375,-1.45313 3.5,-1.45313 2.07813,0 3.39063,1.42188 1.32812,1.40625 1.32812,3.98437 0,0.15625 -0.0156,0.46875 h -7.73438 q 0.0937,1.70313 0.96875,2.60938 0.875,0.90625 2.17188,0.90625 0.96875,0 1.64062,-0.5 0.6875,-0.51563 1.09375,-1.625 z m -5.78125,-2.84375 h 5.79688 q -0.10938,-1.29688 -0.65625,-1.95313 -0.84375,-1.01562 -2.1875,-1.01562 -1.20313,0 -2.03125,0.8125 -0.82813,0.79687 -0.92188,2.15625 z"
     fill-rule="nonzero"
     id="path107" />
  <path
     fill="#000000"
     fill-opacity="0"
     d="M 705.82946,250.52886 H 679.30981"
     fill-rule="evenodd"
     id="path109" />
  <path
     stroke="#000000"
     stroke-width="1"
     stroke-linejoin="round"
     stroke-linecap="butt"
     d="M 705.82946,250.52886 H 685.30975"
     fill-rule="evenodd"
     id="path111" />
  <path
     fill="#000000"
     stroke="#000000"
     stroke-width="1"
     stroke-linecap="butt"
     d="m 685.30974,248.87713 -4.53809,1.65173 4.53809,1.65174 z"
     fill-rule="evenodd"
     id="path113" />
  <path
     fill="#000000"
     fill-opacity="0"
     d="M 813.86051,250.52886 H 787.34086"
     fill-rule="evenodd"
     id="path115" />
  <path
     stroke="#000000"
     stroke-width="1"
     stroke-linejoin="round"
     stroke-linecap="butt"
     d="M 813.86051,250.52886 H 793.34086"
     fill-rule="evenodd"
     id="path117" />
  <path
     fill="#000000"
     stroke="#000000"
     stroke-width="1"
     stroke-linecap="butt"
     d="m 793.34087,248.87713 -4.53815,1.65173 4.53815,1.65174 z"
     fill-rule="evenodd"
     id="path119" />
  <path
     fill="#f54d27"
     d="M 689.92357,20.284722 H 803.24645 V 56.977639 H 689.92357 Z"
     fill-rule="evenodd"
     id="path121" />
  <path
     stroke="#000000"
     stroke-width="2"
     stroke-linejoin="round"
     stroke-linecap="butt"
     stroke-dasharray="8, 6"
     d="M 689.92357,20.284722 H 803.24645 V 56.977639 H 689.92357 Z"
     fill-rule="evenodd"
     id="path123" />
  <path
     fill="#ffffff"
     d="m 720.41121,45.831175 v -14.3125 h 1.89062 v 5.875 h 7.4375 v -5.875 h 1.89063 v 14.3125 h -1.89063 v -6.75 h -7.4375 v 6.75 z m 14.41211,0 v -14.3125 h 10.35937 v 1.6875 h -8.45312 v 4.375 h 7.90625 v 1.6875 h -7.90625 v 4.875 h 8.78125 v 1.6875 z m 11.73047,0 5.5,-14.3125 h 2.04687 l 5.85938,14.3125 h -2.15625 l -1.67188,-4.34375 h -5.98437 l -1.57813,4.34375 z m 4.14062,-5.875 h 4.84375 l -1.48437,-3.96875 q -0.6875,-1.8125 -1.01563,-2.96875 -0.28125,1.375 -0.78125,2.734375 z m 10.77735,5.875 v -14.3125 h 4.92187 q 1.67188,0 2.5625,0.203125 1.21875,0.28125 2.09375,1.015625 1.125,0.96875 1.6875,2.453125 0.5625,1.484375 0.5625,3.40625 0,1.625 -0.375,2.890625 -0.375,1.25 -0.98437,2.078125 -0.59375,0.828125 -1.29688,1.3125 -0.70312,0.46875 -1.70312,0.71875 -1,0.234375 -2.3125,0.234375 z m 1.89062,-1.6875 h 3.0625 q 1.40625,0 2.20313,-0.265625 0.8125,-0.265625 1.29687,-0.75 0.67188,-0.671875 1.04688,-1.796875 0.375,-1.140625 0.375,-2.765625 0,-2.25 -0.73438,-3.453125 -0.73437,-1.203125 -1.79687,-1.609375 -0.75,-0.296875 -2.4375,-0.296875 h -3.01563 z"
     fill-rule="nonzero"
     id="path125" />
  <path
     fill="#000000"
     fill-opacity="0"
     d="m 746.58501,56.977635 v 24.31496"
     fill-rule="evenodd"
     id="path127" />
  <path
     stroke="#000000"
     stroke-width="1"
     stroke-linejoin="round"
     stroke-linecap="butt"
     d="m 746.58501,56.977635 v 18.31496"
     fill-rule="evenodd"
     id="path129" />
  <path
     fill="#000000"
     stroke="#000000"
     stroke-width="1"
     stroke-linecap="butt"
     d="m 744.93328,75.292605 1.65173,4.53809 1.65174,-4.53809 z"
     fill-rule="evenodd"
     id="path131" />
  <path
     fill="#d9d9d9"
     d="m 705.82946,159.22831 v 0 c 0,-9.35329 7.58234,-16.93565 16.93567,-16.93565 h 47.6405 v 0 c 4.49164,0 8.79926,1.78428 11.97528,4.96032 3.17609,3.17606 4.96039,7.48371 4.96039,11.97533 v 11.29404 c 0,9.3533 -7.5824,16.93566 -16.93567,16.93566 h -47.6405 c -9.35333,0 -16.93567,-7.58235 -16.93567,-16.93566 z"
     fill-rule="evenodd"
     id="path133" />
  <path
     fill="#000000"
     d="m 734.40181,170.38783 v 1.6875 h -9.45312 q -0.0156,-0.64063 0.20312,-1.21875 0.35938,-0.96875 1.15625,-1.90625 0.79688,-0.9375 2.29688,-2.17188 2.34375,-1.90625 3.15625,-3.01562 0.82812,-1.125 0.82812,-2.125 0,-1.04688 -0.75,-1.76563 -0.75,-0.71875 -1.95312,-0.71875 -1.26563,0 -2.03125,0.76563 -0.76563,0.76562 -0.76563,2.10937 l -1.8125,-0.1875 q 0.1875,-2.01562 1.39063,-3.07812 1.21875,-1.0625 3.26562,-1.0625 2.04688,0 3.25,1.14062 1.20313,1.14063 1.20313,2.82813 0,0.85937 -0.35938,1.70312 -0.34375,0.82813 -1.15625,1.75 -0.8125,0.90625 -2.70312,2.51563 -1.59375,1.32812 -2.04688,1.79687 -0.4375,0.46875 -0.73437,0.95313 z m 1.88867,-5.375 q 0,-2.53125 0.51563,-4.07813 0.53125,-1.5625 1.5625,-2.39062 1.03125,-0.84375 2.59375,-0.84375 1.15625,0 2.01562,0.46875 0.875,0.45312 1.4375,1.32812 0.5625,0.875 0.89063,2.14063 0.32812,1.25 0.32812,3.375 0,2.51562 -0.53125,4.0625 -0.51562,1.54687 -1.54687,2.40625 -1.01563,0.84375 -2.59375,0.84375 -2.07813,0 -3.25,-1.48438 -1.42188,-1.79687 -1.42188,-5.82812 z m 1.8125,0 q 0,3.53125 0.8125,4.70312 0.82813,1.15625 2.04688,1.15625 1.20312,0 2.03125,-1.17187 0.82812,-1.17188 0.82812,-4.6875 0,-3.53125 -0.82812,-4.6875 -0.82813,-1.17188 -2.04688,-1.17188 -1.21875,0 -1.9375,1.03125 -0.90625,1.29688 -0.90625,4.82813 z m 16.57617,5.78125 q -0.98437,0.82812 -1.89062,1.17187 -0.90625,0.34375 -1.9375,0.34375 -1.70313,0 -2.625,-0.82812 -0.92188,-0.84375 -0.92188,-2.14063 0,-0.76562 0.34375,-1.39062 0.35938,-0.625 0.92188,-1 0.5625,-0.39063 1.26562,-0.59375 0.51563,-0.125 1.5625,-0.26563 2.125,-0.25 3.125,-0.59375 0.0156,-0.35937 0.0156,-0.46875 0,-1.0625 -0.5,-1.51562 -0.67188,-0.59375 -2,-0.59375 -1.25,0 -1.84375,0.4375 -0.57813,0.4375 -0.85938,1.54687 l -1.71875,-0.23437 q 0.23438,-1.10938 0.76563,-1.78125 0.53125,-0.6875 1.54687,-1.04688 1.01563,-0.375 2.35938,-0.375 1.32812,0 2.15625,0.3125 0.82812,0.3125 1.21875,0.79688 0.39062,0.46875 0.54687,1.1875 0.0937,0.45312 0.0937,1.625 v 2.34375 q 0,2.45312 0.10938,3.10937 0.10937,0.64063 0.45312,1.23438 h -1.84375 q -0.26562,-0.54688 -0.34375,-1.28125 z m -0.15625,-3.92188 q -0.95312,0.39063 -2.875,0.65625 -1.07812,0.15625 -1.53125,0.35938 -0.4375,0.1875 -0.6875,0.5625 -0.25,0.375 -0.25,0.84375 0,0.70312 0.53125,1.17187 0.53125,0.46875 1.5625,0.46875 1.01563,0 1.79688,-0.4375 0.79687,-0.45312 1.17187,-1.21875 0.28125,-0.60937 0.28125,-1.76562 z m 9.6543,5.20313 v -3.42188 h -6.21875 v -1.625 l 6.53125,-9.26562 h 1.4375 v 9.26562 h 1.9375 v 1.625 h -1.9375 v 3.42188 z m 0,-5.04688 v -6.45312 l -4.48437,6.45312 z"
     fill-rule="nonzero"
     id="path135" />
  <path
     fill="#000000"
     fill-opacity="0"
     d="m 705.82946,164.87532 -67.27557,63.08661"
     fill-rule="evenodd"
     id="path137" />
  <path
     stroke="#000000"
     stroke-width="1"
     stroke-linejoin="round"
     stroke-linecap="butt"
     d="M 705.82946,164.87532 642.9306,223.85775"
     fill-rule="evenodd"
     id="path139" />
  <path
     fill="#000000"
     stroke="#000000"
     stroke-width="1"
     stroke-linecap="butt"
     d="m 641.80071,222.65288 -2.18048,4.30909 4.44018,-1.89936 z"
     fill-rule="evenodd"
     id="path141" />
</svg>
